6.2 ROSMAP | Assessing the causal association of mtDNAcn with Alzheimer’s disease
…
inspect_cat(path_df) %>% 
  pull(levels) %>% 
  bind_rows(.id = "col_name") %>% 
  rename(level = value) 

# A tibble: 32 x 4
   col_name  level   prop   cnt
   <chr>     <chr>  <dbl> <int>
 1 ad_reagan 1     0.645    488
 2 ad_reagan 0     0.355    269
 3 apoe4     e4-   0.731    553
 4 apoe4     e4+   0.259    196
 5 apoe4     <NA>  0.0106     8
 6 dcfdx_lv  4     0.357    270
 7 dcfdx_lv  1     0.316    239
 8 dcfdx_lv  2     0.252    191
 9 dcfdx_lv  5     0.0462    35
10 dcfdx_lv  6     0.0185    14
# … with 22 more rows
…
